{
    "0": {
        "coefficient": 0.5
    },
    "1": {
        "coefficient": 1
    },
    "2": {
        "coefficient": 2
    },
    "3": {
        "coefficient": 3
    },
    "4": {
        "coefficient": 4
    },
    "5": {
        "coefficient": 5
    }
}